report_Tregubova
…
## [1] 25309   284

Next, the rest of missings will be changed by mean value in the districts. While we do not know if the region statistic was updated with the time, the hystoric dynamic of average value calculated for each column shows that mean does not change over time, that suggests the data was collected once. Although it is likely decrease explanatory ability of variables to explain price, it allows us to replace missings without considering year variable.

## # A tibble: 623 x 284
## # Groups:   sub_area [127]
##    sub_area  year     id timestamp product_type raion_popul green_zone_part
##    <fct>    <int>  <dbl>     <dbl>        <dbl>       <dbl>           <dbl>
##  1 Ajeropo~  2011   434       66.8         1          73007          0.110 
##  2 Ajeropo~  2012  2897.     251.          1          73007          0.110 
##  3 Ajeropo~  2013  9379.     565.          1          73007          0.110 
##  4 Ajeropo~  2014 20831.     876.          1          73007          0.110 
##  5 Ajeropo~  2015 28266.    1064.          1.17       73007          0.110 
##  6 Akademi~  2011   447       67.6         1         106445          0.0431
##  7 Akademi~  2012  2832.     244.          1         106445          0.0431
##  8 Akademi~  2013  9684.     578.          1         106445          0.0431
##  9 Akademi~  2014 20949.     879.          1         106445          0.0431
## 10 Akademi~  2015 28647.    1079.          1         106445          0.0431
## # ... with 613 more rows, and 277 more variables: indust_part <dbl>,
## #   children_preschool <dbl>, preschool_quota <dbl>,
## #   preschool_education_centers_raion <dbl>, children_school <dbl>,
## #   school_quota <dbl>, school_education_centers_raion <dbl>,
## #   school_education_centers_top_20_raion <dbl>,
## #   hospital_beds_raion <dbl>, healthcare_centers_raion <dbl>,
## #   university_top_20_raion <dbl>, sport_objects_raion <dbl>,
## #   additional_education_raion <dbl>, culture_objects_top_25 <dbl>,
## #   culture_objects_top_25_raion <dbl>, shopping_centers_raion <dbl>,
…
